0000000000000000000000000000000000000
111111111111111111111111111111111111111111
2222222222222222222222222222222222222222
3333333333333333333333333333333333333333
444444444444444444444444444444444444444444444444
55555555555555555555555555555555555555555555555555555
6666666666666666666666666666666666666666
7777777777777777777777777777777777777777777
8888888888888888888888888888888888888
9999999999999999999999
1010101010101010101010101010101010101010
111111111111111111111111111111111111
121212121212121212121212121212121212
131313131313131313131313131313131313
141414141414141414141414141414141414
1515151515151515515151515151515151515
161616161616161616161616161616161161
17171717171717171717171717171717171
1181818181818181818181818
19191919191919191919191919191
2002020202020202020202020202020202
212121212121212121212
2222222222222222222222222222222
22323232323232323232323232323232
242424242424242
2525225525
2626262626262626262626262
27272272772727272772
288282828288
2992992922929299222992292
3030303030303033003330033030